{
  "@context": [
    "https://www.w3.org/ns/activitystreams",
    "https://gleasonator.com/schemas/litepub-0.1.jsonld",
    {
      "@language": "und"
    }
  ],
  "alsoKnownAs": [
    "https://mitra.social/users/alex"
  ],
  "attachment": [
    {
      "name": "Website",
      "type": "PropertyValue",
      "value": "<a href=\"https://alexgleason.me\" rel=\"ugc\">https://alexgleason.me</a>",
      "verified_at": "2022-12-02T22:30:09.000Z"
    },
    {
      "name": "Soapbox",
      "type": "PropertyValue",
      "value": "<a href=\"https://soapbox.pub\" rel=\"ugc\">https://soapbox.pub</a>",
      "verified_at": null
    },
    {
      "name": "Email",
      "type": "PropertyValue",
      "value": "alex@alexgleason.me",
      "verified_at": null
    },
    {
      "name": "Gender identity",
      "type": "PropertyValue",
      "value": "Soyboy",
      "verified_at": null
    },
    {
      "name": "Donate (PayPal)",
      "type": "PropertyValue",
      "value": "<a href=\"https://paypal.me/gleasonator\" rel=\"ugc\">https://paypal.me/gleasonator</a>",
      "verified_at": null
    },
    {
      "name": "$BTC",
      "type": "PropertyValue",
      "value": "bc1q9cx35adpm73aq2fw40ye6ts8hfxqzjr5unwg0n",
      "verified_at": null
    },
    {
      "name": "$ETH",
      "type": "PropertyValue",
      "value": "0xAc9aB5Fc04Dc1cB1789Af75b523Bd23C70B2D717",
      "verified_at": null
    },
    {
      "name": "$DOGE",
      "type": "PropertyValue",
      "value": "D5zVZs6jrRakaPVGiErkQiHt9sayzm6V5D",
      "verified_at": null
    },
    {
      "name": "$XMR",
      "type": "PropertyValue",
      "value": "45JDCLrjJ4bgVUSbbs2yjy9m5Mf4VLPW8fG7jw9sq5u69rXZZopQogZNeyYkMBnXpkaip4p4QwaaJNhdTotPa9g44DBCzdK",
      "verified_at": null
    },
    {
      "name": "lud16",
      "type": "PropertyValue",
      "value": "alexgleason@getalby.com",
      "verified_at": null
    }
  ],
  "capabilities": {
    "acceptsChatMessages": true
  },
  "discoverable": false,
  "endpoints": {
    "oauthAuthorizationEndpoint": "https://gleasonator.com/oauth/authorize",
    "oauthRegistrationEndpoint": "https://gleasonator.com/api/v1/apps",
    "oauthTokenEndpoint": "https://gleasonator.com/oauth/token",
    "sharedInbox": "https://gleasonator.com/inbox",
    "uploadMedia": "https://gleasonator.com/api/ap/upload_media"
  },
  "featured": "https://gleasonator.com/users/alex/collections/featured",
  "followers": "https://gleasonator.com/users/alex/followers",
  "following": "https://gleasonator.com/users/alex/following",
  "icon": {
    "type": "Image",
    "url": "https://media.gleasonator.com/9059767a327659dad5d43a2a7b3f048b7008cea76e58dc6ba79b3838feaf25e5.png"
  },
  "id": "https://gleasonator.com/users/alex",
  "image": {
    "type": "Image",
    "url": "https://media.gleasonator.com/e5f6e0e380536780efa774e8d3c8a5a040e3f9f99dbb48910b261c32872ee3a3.gif"
  },
  "inbox": "https://gleasonator.com/users/alex/inbox",
  "manuallyApprovesFollowers": false,
  "name": "Alex Gleason",
  "outbox": "https://gleasonator.com/users/alex/outbox",
  "preferredUsername": "alex",
  "publicKey": {
    "id": "https://gleasonator.com/users/alex#main-key",
    "owner": "https://gleasonator.com/users/alex",
    "publicKeyPem": "-----BEGIN PUBLIC KEY-----\nMIIBIjANBgkqhkiG9w0BAQEFAAOCAQ8AMIIBCgKCAQEArJtIgvmRUMQh3/n5B41u\nfeCu83E/WvaF3JPfpg+sh4sgONNP34KpKJ4FqYTKM63xGkGWcHA96/39Q+GG20tT\nECpPcTbRuQJ6DxJeYabtXiAcrTgitRMd/2XTaeWqaPwXIfj4n3eD6mVbJUbk9DAs\nb2dFppCcRu2ClouhO1LeoQgVitE31iNHNnN4jsQY9Z8BW0OuP+brwi/Ea/JftRfN\nF2jq9zYC1UjaE8M1VXlq5MKie73QGU32RHcrc0VE4P4druzT6Ew69QSLqeEiDsw2\n8ULrJBxZKPtn17x5PzavpNm8Xl0M/YIy3irxVCjw1J5LkLuRoZMv5ZB7Dfpp0uW0\nyQIDAQAB\n-----END PUBLIC KEY-----\n\n"
  },
  "summary": "I create Fediverse software that empowers people online.<br/><br/>I&#39;m vegan btw<br/><br/>Note: If you have a question for me, please tag me publicly. This gives the opportunity for others to chime in, and bystanders to learn.",
  "tag": [],
  "type": "Person",
  "url": "https://gleasonator.com/users/alex",
  "vcard:Address": "Texas",
  "vcard:bday": "1993-07-03"
}
