{
  "kind": 1,
  "content": "hello #[1] @npub15ph30la3n069s4l9ja9v3wcmaftcrztcdm4ytrjy800cc02n80fsqvkw0q  and #[2] ",
  "tags": [
    [
      "e",
      "3d4ece2428b7dfd80061ef20232baa6c807d817ba6b1e034a7ce233ff3f4b049",
      "",
      "root"
    ],
    [
      "p",
      "a06f17ffb19bf45857e5974ac8bb1bea578189786eea458e443bdf8c3d533bd3"
    ],
    [
      "p",
      "9b9b4d879acf5214aa7ce7b3e8e0328431ce3c0d898fa1817e0565160ef03b82",
      "",
      "mention"
    ]
  ],
  "created_at": 1677878414,
  "pubkey": "9f150df609a0262f6663ddd7c30c3d060818161bdce5a9b31fe2618c9c0a050a",
  "id": "9329f8e49138586937fa5b8c5c3887a77c0468ba83d8d8a1c97266f7ab0a04ce",
  "sig": "2a457ff81c5db554476ddc3f185c04c6c40bd17f835a41e95c6d06ccf3585c7317044203359a2207f6eb99222d9afe7730732e7978205378b633a2e4749e18d8"
}